[
  {
    "zona": "Región Metropolitana",
    "zoom": 11,
    "center": [-33.4553482, -70.6594385],
    "tiendas" : [
      {
        "tienda": "Alto las Condes",
        "slug": "alto-las-condes",
        "coord": [-33.390732, -70.545112],
        "info": {
          "direccion": "Av Presidente Kennedy 9001, 1132, Santiago, Las Condes",
          "horarios": {
            "lun-sab": "08:00 a 19:00 Horas",
            "dom-fest": "09:00 a 19:00 horas"
          },
          "telefono": "+56222131339"
        }
      },
      {
        "tienda": "Cerrillos",
        "slug": "cerrillos",
        "coord": [-33.515846, -70.738013],
        "info": {
          "direccion": "Camino a Melipilla 10939, Maipú",
          "horarios": {
            "lun-sab": "08:00 a 19:00 Horas",
            "dom-fest": "09:00 a 19:00 horas"
          },
          "telefono": "+56222131339"
        }
      },
      {
        "tienda": "Chicureo",
        "slug": "chicureo",
        "coord": [-33.2862256, -70.7002281],
        "info": {
          "direccion": "Av. Chicureo N° 230, Santiago, Colina",
          "horarios": {
            "lun-sab": "08:00 a 19:00 Horas",
            "dom-fest": "09:00 a 19:00 horas"
          },
          "telefono": "600 600 3010"
        }
      },
      {
        "tienda": "Costanera Center",
        "slug": "costanera-center",
        "coord": [-33.417898, -70.60675],
        "info": {
          "direccion": "Av. Andrés Bello 2447, Santiago, Providencia",
          "horarios": {
            "lun-sab": "08:00 a 19:00 Horas",
            "dom-fest": "09:00 a 19:00 horas"
          },
          "telefono": "600 600 3279"
        }
      },
      {
        "tienda": "El Llano",
        "slug": "el-llano",
        "coord": [-33.485596, -70.651537],
        "info": {
          "direccion": "Llano Subercaseaux 3519A, San Miguel",
          "horarios": {
            "lun-sab": "08:00 a 18:00 Horas",
            "dom-fest": "09:00 a 18:00 horas"
          },
          "telefono": "+56222131339"
        }
      },
      {
        "tienda": "La Dehesa",
        "slug": "la-dehesa",
        "coord": [-33.35711, -70.515829],
        "info": {
          "direccion": "Av. La Dehesa 1445, Lo Barnechea",
          "horarios": {
            "lun-sab": "08:00 a 19:00 Horas",
            "dom-fest": "09:00 a 19:00 horas"
          },
          "telefono": "+56222131339"
        }
      },
      {
        "tienda": "La Florida",
        "slug": "la-florida",
        "coord": [-33.51076,-70.605892],
        "info": {
          "direccion": "Vicuña Mackenna 6100, La Florida",
          "horarios": {
            "lun-sab": "08:00 a 18:00 Horas",
            "dom-fest": "09:00 a 18:00 horas"
          },
          "telefono": "+56978312404"
        }
      },
      {
        "tienda": "La Reina",
        "slug": "la-reina",
        "coord": [-33.428247, -70.540775],
        "info": {
          "direccion": "Av. Francisco Bilbao 8750, La Reina, Las Condes",
          "horarios": {
            "lun-sab": "08:00 a 19:00 Horas",
            "dom-fest": "09:00 a 19:00 horas"
          },
          "telefono": "+56222131339"
        }
      },
      {
        "tienda": "Maipú",
        "slug": "maipu",
        "coord": [-33.479974, -70.753787],
        "info": {
          "direccion": "Av. Américo Vespucio 1011, Santiago, Maipú",
          "horarios": {
            "lun-sab": "08:00 a 19:00 Horas",
            "dom-fest": "09:00 a 19:00 horas"
          },
          "telefono": "+56222131339"
        }
      },
      {
        "tienda": "Ochagavía",
        "slug": "ochogavia",
        "coord": [-33.501479, -70.66818],
        "info": {
          "direccion": "José Joaquín Prieto Vial 5531, Pedro Aguirre Cerda",
          "horarios": {
            "lun-sab": "08:00 a 19:00 Horas",
            "dom-fest": "09:00 a 19:00 horas"
          },
          "telefono": "+56222131339"
        }
      },
      {
        "tienda": "Puente Alto",
        "slug": "puente-alto",
        "coord": [-33.5715469, -70.587499],
        "info": {
          "direccion": "Av. Concha Y Toro 3810, Puente Alto",
          "horarios": {
            "lun-sab": "08:00 a 19:00 Horas",
            "dom-fest": "09:00 a 19:00 horas"
          },
          "telefono": "600 600 3010"
        }
      },
      {
        "tienda": "Quilicura",
        "slug": "quilicura",
        "coord": [-33.357897, -70.728276],
        "info": {
          "direccion": "Av. lo Marcoleta 299, Quilicura",
          "horarios": {
            "lun-sab": "08:00 a 19:00 Horas",
            "dom-fest": "09:00 a 19:00 horas"
          },
          "telefono": "600 600 3279"
        }
      },
      {
        "tienda": "Quilín",
        "slug": "quilin",
        "coord": [-33.357897, -70.728276],
        "info": {
          "direccion": "Av. Quilín 5400, Penalolen, Peñalolén",
          "horarios": {
            "lun-sab": "08:00 a 19:00 Horas",
            "dom-fest": "09:00 a 19:00 horas"
          },
          "telefono": "600 600 3010"
        }
      },
      {
        "tienda": "San Bernardo",
        "slug": "san-bernardo",
        "coord": [-33.633659, -70.708954],
        "info": {
          "direccion": "Av. Portales 3698, San Bernardo",
          "horarios": {
            "lun-sab": "08:00 a 19:00 Horas",
            "dom-fest": "09:00 a 19:00 horas"
          },
          "telefono": "600 600 3279"
        }
      }
    ]
  },
  {
    "zona": "Zona Norte",
    "zoom": 5.5,
    "center": [-24.0330174, -67.3836161],
    "tiendas" : [
      {
        "tienda": "Arica",
        "slug": "arica",
        "coord": [-18.469143, -70.307095],
        "info": {
          "direccion": "Av. Diego Portales 161",
          "horarios": {
            "lun-sab": "08:00 a 20:00 Horas",
            "dom-fest": "09:00 a 20:00 horas"
          },
          "telefono": "+56582209169"
        }
      },
      {
        "tienda": "Antofagasta",
        "slug": "antofagasta",
        "coord": [-23.667576, -70.404875],
        "info": {
          "direccion": "Av. Angamos 745",
          "horarios": {
            "lun-sab": "08:00 a 20:00 Horas",
            "dom-fest": "09:00 a 20:00 horas"
          },
          "telefono": "600 600 3279"
        }
      },
      {
        "tienda": "Calama",
        "slug": "calama",
        "coord": [-22.454842, -68.924187],
        "info": {
          "direccion": "Av. Chorrillos",
          "horarios": {
            "lun-sab": "08:00 a 20:00 Horas",
            "dom-fest": "09:00 a 20:00 horas"
          },
          "telefono": "+56552368301"
        }
      },
      {
        "tienda": "Copiapó",
        "slug": "copiapo",
        "coord": [-27.3834801, -70.3155285],
        "info": {
          "direccion": "Av. Copayapu 2406",
          "horarios": {
            "lun-sab": "08:00 a 20:00 Horas",
            "dom-fest": "09:00 a 20:00 horas"
          },
          "telefono": "+56522207801"
        }
      },
      {
        "tienda": "La Serena",
        "slug": "la-serena",
        "coord": [-29.916655, -71.259674],
        "info": {
          "direccion": "Parcela 69 - Ruta 5 Norte",
          "horarios": {
            "lun-sab": "09:00 a 18:00 Horas",
            "dom-fest": "09:00 a 18:00 horas"
          },
          "telefono": "+56222131339"
        }
      }
      
    ]
  },
  {
    "zona": "Zona Centro",
    "zoom": 7.5,
    "center": [-34.1971592, -70.9967705],
    "tiendas" : [
      {
        "tienda": "Curicó",
        "slug": "curico",
        "coord": [-34.989707, -71.245259],
        "info": {
          "direccion": "Av. O´Higgins 201, Curicó, Maule",
          "horarios": {
            "lun-sab": "09:00 a 20:00 Horas",
            "dom-fest": "09:00 a 20:00 horas"
          },
          "telefono": "+56222131339"
        }
      },      
      {
        "tienda": "El Belloto",
        "slug": "el-belloto",
        "coord": [-33.045718, -71.420054],
        "info": {
          "direccion": "Baden Powell 150, Quilpué, Valparaíso",
          "horarios": {
            "lun-sab": "08:00 a 19:00 Horas",
            "dom-fest": "09:00 a 19:00 horas"
          },
          "telefono": "+56222131339"
        }    
      },      
      {
        "tienda": "Los Andes",
        "slug": "los-andes",
        "coord": [-32.822321, -70.616024],
        "info": {
          "direccion": "San Rafael 2151, Valparaíso, Los Andes, Valparaíso",
          "horarios": {
            "lun-sab": "08:00 a 20:00 Horas",
            "dom-fest": "09:00 a 20:00 horas"
          },
          "telefono": "+56222131339"
        }
      },      
      {
        "tienda": "Quillota",
        "slug": "quillota",
        "coord": [-32.875928, -71.235003],
        "info": {
          "direccion": "Rafael Ariztía 530, Quillota, Valparaíso",
          "horarios": {
            "lun-sab": "08:00 a 18:00 Horas",
            "dom-fest": "09:00 a 18:00 horas"
          },
          "telefono": "600 600 3279"
        }
      },      
      {
        "tienda": "Rancagua",
        "slug": "rancagua",
        "coord": [-34.186661, -70.725141],
        "info": {
          "direccion": "Carr del Cobre 750, Rancagua, O'Higgins",
          "horarios": {
            "lun-sab": "08:00 a 20:00 Horas",
            "dom-fest": "09:00 a 20:00 horas"
          },
          "telefono": "600 600 3279"
        }
      },      
      {
        "tienda": "Talca",
        "slug": "talca",
        "coord": [-35.430195, -71.670157],
        "info": {
          "direccion": "El Arenal 411, Talca, Maule",
          "horarios": {
            "lun-sab": "09:00 a 18:00 Horas",
            "dom-fest": "09:00 a 18:00 horas"
          },
          "telefono": "600 600 3279"
        }
      },      
      {
        "tienda": "Valparaíso",
        "slug": "valparaiso",
        "coord": [-33.044212, -71.604273],
        "info": {
          "direccion": "Av. Argentina 51",
          "horarios": {
            "lun-sab": "09:00 a 18:00 Horas",
            "dom-fest": "09:00 a 18:00 horas"
          },
          "telefono": "600 600 3279"
        }    
      },      
      {
        "tienda": "Viña del Mar",
        "slug": "vina-del-mar",
        "coord": [-33.035808, -71.523577],
        "info": {
          "direccion": "1 Nte. 2901, Viña del Mar, Valparaíso",
          "horarios": {
            "lun-sab": "08:00 a 18:00 Horas",
            "dom-fest": "09:00 a 19:00 horas"
          },
          "telefono": "600 600 3279"
        }
      }      
    ]
  },
  {
    "zona": "Zona Sur",
    "zoom": 7.5,
    "center": [-34.1971592, -70.9967705],
    "tiendas" : [
      {
        "tienda": "Chiguayante",
        "slug": "chiguayante",
        "coord": [-36.930514, -73.021421],
        "info": {
          "direccion": "Av. Manuel Rodríguez 1045, Chiguayante, Bío Bío",
          "horarios": {
            "lun-sab": "09:00 a 18:00 Horas",
            "dom-fest": "09:00 a 18:00 horas"
          },
          "telefono": "600 600 3279"
        }
      },
      {
        "tienda": "Chillán",
        "slug": "chillan",
        "coord": [-36.592788, -72.104389],
        "info": {
          "direccion": "Av. O Higgins 0450, Chillán, Región del Bío Bío",
          "horarios": {
            "lun-sab": "09:00 a 18:00 Horas",
            "dom-fest": "09:00 a 18:00 horas"
          },
          "telefono": "600 600 3279"
        }
      },
      {
        "tienda": "Concepción",
        "slug": "concepcion",
        "coord": [-36.807853, -73.089124],
        "info": {
          "direccion": "Costanera Norte 1, 9781 - Hualpén, Concepción, Bío Bío",
          "horarios": {
            "lun-sab": "09:00 a 18:00 Horas",
            "dom-fest": "09:00 a 18:00 horas"
          },
          "telefono": "+56412503000"
        }
      },
      {
        "tienda": "Coronel",
        "slug": "coronel",
        "coord": [-36.998138, -73.161344],
        "info": {
          "direccion": "Manuel Montt 1600, Coronel, Bío Bío",
          "horarios": {
            "lun-sab": "09:00 a 18:00 Horas",
            "dom-fest": "09:00 a 18:00 horas"
          },
          "telefono": "600 600 3279"
        }
      },
      {
        "tienda": "Linares",
        "slug": "linares",
        "coord": [-35.838213, -71.58704],
        "info": {
          "direccion": "Januario Espinoza 1183, Linares, Maule",
          "horarios": {
            "lun-sab": "09:00 a 18:00 Horas",
            "dom-fest": "09:00 a 18:00 horas"
          },
          "telefono": "600 600 3279"
        }
      },
      {
        "tienda": "Los Ángeles",
        "slug": "los-angeles",
        "coord": [-37.482004, -72.359464],
        "info": {
          "direccion": "Av. Vicuña Mackenna 780, Los Angeles, Los Ángeles, Bío Bío",
          "horarios": {
            "lun-sab": "09:00 a 18:00 Horas",
            "dom-fest": "09:00 a 18:00 horas"
          },
          "telefono": "+56432344291"
        }
      },
      {
        "tienda": "Osorno",
        "slug": "osorno",
        "coord": [-40.580552, -73.116217],
        "info": {
          "direccion": "Cesar Ercilla 1075, Osorno, Los Lagos, Chile",
          "horarios": {
            "lun-sab": "09:00 a 18:00 Horas",
            "dom-fest": "09:00 a 18:00 horas"
          },
          "telefono": "600 600 3279"
        }
      },
      {
        "tienda": "Puerto Montt",
        "slug": "puerto-montt",
        "coord": [-41.468621, -72.930377],
        "info": {
          "direccion": "Ejército 470, Puerto Montt, Los Lagos",
          "horarios": {
            "lun-sab": "08:00 a 20:00 Horas",
            "dom-fest": "09:00 a 20:00 horas"
          },
          "telefono": "600 600 3010"
        }
      },
      {
        "tienda": "Temuco",
        "slug": "temuco",
        "coord": [-38.746621, -72.607355],
        "info": {
          "direccion": "Caupolicán 0650, Temuco, Araucanía, Chile",
          "horarios": {
            "lun-sab": "09:00 a 18:00 Horas",
            "dom-fest": "09:00 a 18:00 horas"
          },
          "telefono": "+56452297300"
        }
      },
      {
        "tienda": "Portal Temuco",
        "slug": "portal-temuco",
        "coord": [-38.7335708, -72.6128504],
        "info": {
          "direccion": "Av. Alemania 671, Temuco, Araucanía",
          "horarios": {
            "lun-sab": "10:00 a 19:00 Horas",
            "dom-fest": "10:00 a 19:00 horas"
          },
          "telefono": "+56452297900"
        }
      }
    ]
  }
]
